<svg width="122" height="40" viewBox="0 0 122 40" fill="none" xmlns="http://www.w3.org/2000/svg">
<path fill-rule="evenodd" clip-rule="evenodd" d="M40.2723 33.5379C40.2723 33.5379 46.4818 33.5379 46.4818 26.1612C46.4818 18.785 40.5954 18.785 40.2214 18.785C39.8475 18.785 33.6052 18.785 33.6052 26.1612C33.6052 33.5379 40.2723 33.5379 40.2723 33.5379ZM32.7905 37.969C30.9241 36.9621 29.3884 35.4509 28.1844 33.4355C26.9797 31.4212 26.3775 28.9964 26.3775 26.1612C26.3775 23.2925 26.9709 20.8594 28.1591 18.8614C29.3463 16.864 30.9074 15.3617 32.8416 14.3537C34.7753 13.3468 36.8281 12.8425 38.9999 12.8425C41.8502 12.8425 44.3443 13.7135 46.4818 15.4552V13.3548H53.6072V38.9681H46.4818V36.3042C44.5134 38.4221 41.8835 39.4802 38.5927 39.4802C36.5903 39.4802 34.6563 38.9759 32.7905 37.969Z" fill="#1D1D1B"/>
<path fill-rule="evenodd" clip-rule="evenodd" d="M59.8797 13.3548H67.0049V16.3769C69.0068 14.0207 71.5172 12.8425 74.5376 12.8425C77.5573 12.8425 79.678 14.0382 80.8995 16.4281C83.1723 14.0382 85.8872 12.8425 89.0424 12.8425C91.6548 12.8425 93.6737 13.5773 95.0987 15.0453C96.5242 16.5139 97.2367 18.5285 97.2367 21.0897V38.9671H90.1113V22.6775C90.1113 20.2187 89.0248 18.9893 86.854 18.9893C85.9932 18.9893 85.2035 19.1955 84.4854 19.6072C82.9509 20.4873 82.0701 22.1947 82.0701 23.9723V38.9671H74.9446V22.729C74.9446 20.2364 73.8925 18.9893 71.7894 18.9893C70.8045 18.9893 69.8887 19.3145 69.0409 19.9624C67.7579 20.9492 67.0049 22.4813 67.0049 24.1064V38.9671H59.8797V13.3548Z" fill="#1D1D1B"/>
<path fill-rule="evenodd" clip-rule="evenodd" d="M19.1648 16.1793V11.7812C19.1648 5.27471 24.4055 0 30.8702 0V4.3981C30.8702 10.9046 25.6294 16.1793 19.1648 16.1793Z" fill="#1D1D1B"/>
<path fill-rule="evenodd" clip-rule="evenodd" d="M19.1648 38.9674H11.3775V26.4683L-5.34058e-05 2.25781H8.29576L19.1648 25.7737V38.9674Z" fill="#1D1D1B"/>
<path fill-rule="evenodd" clip-rule="evenodd" d="M113.96 23.3949C111.448 22.7118 109.717 22.132 108.768 21.6532C107.817 21.1752 107.343 20.5613 107.343 19.8094C107.343 19.1947 107.631 18.7081 108.208 18.3491C108.784 17.9904 109.497 17.8116 110.346 17.8116C111.465 17.8116 112.415 18.1274 113.196 18.759C113.754 19.2121 114.168 19.8147 114.448 20.5551L120.098 18.5373C119.505 16.8969 118.506 15.5839 117.089 14.6097C115.376 13.4318 113.178 12.8425 110.499 12.8425C108.7 12.8425 107.106 13.1674 105.714 13.8154C104.323 14.4652 103.246 15.3445 102.482 16.4535C101.719 17.5642 101.337 18.8025 101.337 20.1675C101.337 22.217 102.015 23.8651 103.373 25.1111C104.729 26.358 106.749 27.3062 109.43 27.9541C111.635 28.535 113.12 29.0554 113.883 29.5165C114.646 29.9773 115.028 30.6175 115.028 31.4375C115.028 32.2235 114.689 32.8382 114.01 33.2814C113.331 33.7261 112.466 33.9473 111.415 33.9473C108.92 33.9473 107.254 32.9734 106.39 31.0593L100.554 32.8554C101.256 34.8129 102.433 36.3645 104.086 37.5082C105.985 38.8228 108.428 39.4802 111.415 39.4802C113.45 39.4802 115.24 39.1129 116.784 38.3792C118.327 37.6449 119.514 36.6286 120.347 35.3308C121.177 34.0333 121.594 32.5986 121.594 31.0276C121.594 28.979 120.974 27.3743 119.736 26.2124C118.497 25.0516 116.572 24.112 113.96 23.3949Z" fill="#1D1D1B"/>
</svg>
